\relax 
\citation{msms}
\@writefile{lof}{\contentsline {figure}{\numberline {1}{\ignorespaces 質量分析（MS）スペクトル．}}{1}\protected@file@percent }
\@writefile{lof}{\contentsline {figure}{\numberline {2}{\ignorespaces 分光分析におけるスペクトル測定の模式図．}}{1}\protected@file@percent }
\@writefile{lof}{\contentsline {figure}{\numberline {3}{\ignorespaces 帯観測モデルに基づくスペクトル測定の模式図．}}{2}\protected@file@percent }
